{
	"n_targets": 1043557,
	"n_bootstraps": 0,
	"n_processed": 63916633,
	"kallisto_version": "0.43.0",
	"index_version": 10,
	"start_time": "Mon Jul 17 15:37:50 2017",
	"call": "kallisto quant -i /home/tlorin/results/kallisto/index/Aocellaris/20170703/Trinity.merged.20170703.cleanHeader.fa.transdecoder.cleanHeader.index -o /home/tlorin/results/kallisto/quant/Aocellaris/20170717/TTLN19/ --rf-stranded --bias --plaintext TTLN19.R1.trim93.bbduk.fastq TTLN19.R2.trim93.bbduk.fastq"
}
